{"componentChunkName":"component---packages-blog-gatsby-blog-core-src-templates-collection-tag-js","path":"/blog/tag/cobalt/","result":{"data":{"collectionInfo":{"id":"1e2b40ae-5a2c-5f18-81b2-12b6d654c584","name":"#cobalt","slug":"/blog/tag/cobalt/"},"posts":{"nodes":[{"id":"dc493f18-00dd-5522-9362-380dca22bc47","title":"Re-2Ox Process meets the challenge of green and economical battery recycling","slug":"/blog/re-2ox-process-meets-the-challenge-of-green-and-economical-battery-recycling/","link":null,"excerpt":"Canada Silver Cobalt Works is creating a green environment for battery components and recycling that…","timeToRead":1,"featured":null,"thumbnailText":null,"date":"May 12, 2021","category":{"id":"40aa058e-c7de-5227-90d1-856df011951c","name":"Features","slug":"/blog/category/features/","color":"#97c252","icon":"/static/1de85bbd781531b61bf5a25b83d72d32/2.svg"},"author":null,"thumbnail":{"__typename":"ImageSharp","ImageSharp_vertical":{"layout":"constrained","backgroundColor":"#787898","images":{"fallback":{"src":"/static/a381cbe123484c239b97a005d5ce4a00/c3c3a/image.jpg","srcSet":"/static/a381cbe123484c239b97a005d5ce4a00/25bbe/image.jpg 190w,\n/static/a381cbe123484c239b97a005d5ce4a00/c3c3a/image.jpg 380w","sizes":"(min-width: 380px) 380px, 100vw"},"sources":[{"srcSet":"/static/a381cbe123484c239b97a005d5ce4a00/c50be/image.webp 190w,\n/static/a381cbe123484c239b97a005d5ce4a00/c4b86/image.webp 380w","type":"image/webp","sizes":"(min-width: 380px) 380px, 100vw"}]},"width":380,"height":290},"ImageSharp_hero":{"layout":"constrained","backgroundColor":"#787898","images":{"fallback":{"src":"/static/a381cbe123484c239b97a005d5ce4a00/b104e/image.jpg","srcSet":"/static/a381cbe123484c239b97a005d5ce4a00/2c034/image.jpg 800w,\n/static/a381cbe123484c239b97a005d5ce4a00/b104e/image.jpg 1600w","sizes":"(min-width: 1600px) 1600px, 100vw"},"sources":[{"srcSet":"/static/a381cbe123484c239b97a005d5ce4a00/dd444/image.webp 800w,\n/static/a381cbe123484c239b97a005d5ce4a00/68ede/image.webp 1600w","type":"image/webp","sizes":"(min-width: 1600px) 1600px, 100vw"}]},"width":1600,"height":650}}},{"id":"b2f1f091-d365-5c87-8afa-440e8057d831","title":"Re-2Ox and Recovery of Critical US Strategic Metals","slug":"/blog/re-2ox-and-recovery-of-critical-us-strategic-metals/","link":null,"excerpt":"Processing Highlights Processing of mineralized core involves using one of the conventional mineral…","timeToRead":1,"featured":true,"thumbnailText":null,"date":"March 30, 2021","category":{"id":"cc9bc279-2aea-5557-b6df-da7e61199a9c","name":"Press Releases","slug":"/blog/category/press-releases/","color":"#97c252","icon":"/static/f41361d1715191a688f7243a90b28bc7/1.svg"},"author":null,"thumbnail":{"__typename":"ImageSharp","ImageSharp_vertical":{"layout":"constrained","backgroundColor":"#787898","images":{"fallback":{"src":"/static/a381cbe123484c239b97a005d5ce4a00/c3c3a/image.jpg","srcSet":"/static/a381cbe123484c239b97a005d5ce4a00/25bbe/image.jpg 190w,\n/static/a381cbe123484c239b97a005d5ce4a00/c3c3a/image.jpg 380w","sizes":"(min-width: 380px) 380px, 100vw"},"sources":[{"srcSet":"/static/a381cbe123484c239b97a005d5ce4a00/c50be/image.webp 190w,\n/static/a381cbe123484c239b97a005d5ce4a00/c4b86/image.webp 380w","type":"image/webp","sizes":"(min-width: 380px) 380px, 100vw"}]},"width":380,"height":290},"ImageSharp_hero":{"layout":"constrained","backgroundColor":"#787898","images":{"fallback":{"src":"/static/a381cbe123484c239b97a005d5ce4a00/b104e/image.jpg","srcSet":"/static/a381cbe123484c239b97a005d5ce4a00/2c034/image.jpg 800w,\n/static/a381cbe123484c239b97a005d5ce4a00/b104e/image.jpg 1600w","sizes":"(min-width: 1600px) 1600px, 100vw"},"sources":[{"srcSet":"/static/a381cbe123484c239b97a005d5ce4a00/dd444/image.webp 800w,\n/static/a381cbe123484c239b97a005d5ce4a00/68ede/image.webp 1600w","type":"image/webp","sizes":"(min-width: 1600px) 1600px, 100vw"}]},"width":1600,"height":650}}},{"id":"cf49cd9c-49ac-5e30-83ae-7d507640bcba","title":"SGS Retained for Re-2OX Pilot Plant for Battery Metals Production","slug":"/blog/sgs-retained-for-re-2ox-pilot-plant-for-battery-metals-production/","link":null,"excerpt":"An agreement has been signed with SGS Canada Inc. to proceed with the Re-2OX pilot plant. This…","timeToRead":3,"featured":null,"thumbnailText":null,"date":"January 15, 2021","category":{"id":"cc9bc279-2aea-5557-b6df-da7e61199a9c","name":"Press Releases","slug":"/blog/category/press-releases/","color":"#97c252","icon":"/static/f41361d1715191a688f7243a90b28bc7/1.svg"},"author":null,"thumbnail":{"__typename":"ImageSharp","ImageSharp_vertical":{"layout":"constrained","backgroundColor":"#787898","images":{"fallback":{"src":"/static/a381cbe123484c239b97a005d5ce4a00/c3c3a/image.jpg","srcSet":"/static/a381cbe123484c239b97a005d5ce4a00/25bbe/image.jpg 190w,\n/static/a381cbe123484c239b97a005d5ce4a00/c3c3a/image.jpg 380w","sizes":"(min-width: 380px) 380px, 100vw"},"sources":[{"srcSet":"/static/a381cbe123484c239b97a005d5ce4a00/c50be/image.webp 190w,\n/static/a381cbe123484c239b97a005d5ce4a00/c4b86/image.webp 380w","type":"image/webp","sizes":"(min-width: 380px) 380px, 100vw"}]},"width":380,"height":290},"ImageSharp_hero":{"layout":"constrained","backgroundColor":"#787898","images":{"fallback":{"src":"/static/a381cbe123484c239b97a005d5ce4a00/b104e/image.jpg","srcSet":"/static/a381cbe123484c239b97a005d5ce4a00/2c034/image.jpg 800w,\n/static/a381cbe123484c239b97a005d5ce4a00/b104e/image.jpg 1600w","sizes":"(min-width: 1600px) 1600px, 100vw"},"sources":[{"srcSet":"/static/a381cbe123484c239b97a005d5ce4a00/dd444/image.webp 800w,\n/static/a381cbe123484c239b97a005d5ce4a00/68ede/image.webp 1600w","type":"image/webp","sizes":"(min-width: 1600px) 1600px, 100vw"}]},"width":1600,"height":650}}},{"id":"65efa2e4-b7bc-5b05-a329-bcb4fb591938","title":"Tesla’s decision to source cobalt from Glencore raises concerns","slug":"/blog/teslas-decision-to-source-cobalt-from-glencore-raises-concerns/","link":null,"excerpt":"As we move towards electrification of the global transport fleet one of the biggest concerns is the…","timeToRead":1,"featured":true,"thumbnailText":null,"date":"June 30, 2020","category":{"id":"40aa058e-c7de-5227-90d1-856df011951c","name":"Features","slug":"/blog/category/features/","color":"#97c252","icon":"/static/1de85bbd781531b61bf5a25b83d72d32/2.svg"},"author":null,"thumbnail":{"__typename":"ImageSharp","ImageSharp_vertical":{"layout":"constrained","backgroundColor":"#787898","images":{"fallback":{"src":"/static/a381cbe123484c239b97a005d5ce4a00/c3c3a/image.jpg","srcSet":"/static/a381cbe123484c239b97a005d5ce4a00/25bbe/image.jpg 190w,\n/static/a381cbe123484c239b97a005d5ce4a00/c3c3a/image.jpg 380w","sizes":"(min-width: 380px) 380px, 100vw"},"sources":[{"srcSet":"/static/a381cbe123484c239b97a005d5ce4a00/c50be/image.webp 190w,\n/static/a381cbe123484c239b97a005d5ce4a00/c4b86/image.webp 380w","type":"image/webp","sizes":"(min-width: 380px) 380px, 100vw"}]},"width":380,"height":290},"ImageSharp_hero":{"layout":"constrained","backgroundColor":"#787898","images":{"fallback":{"src":"/static/a381cbe123484c239b97a005d5ce4a00/b104e/image.jpg","srcSet":"/static/a381cbe123484c239b97a005d5ce4a00/2c034/image.jpg 800w,\n/static/a381cbe123484c239b97a005d5ce4a00/b104e/image.jpg 1600w","sizes":"(min-width: 1600px) 1600px, 100vw"},"sources":[{"srcSet":"/static/a381cbe123484c239b97a005d5ce4a00/dd444/image.webp 800w,\n/static/a381cbe123484c239b97a005d5ce4a00/68ede/image.webp 1600w","type":"image/webp","sizes":"(min-width: 1600px) 1600px, 100vw"}]},"width":1600,"height":650}}},{"id":"52525bd6-d87c-5a72-bcd0-c7d559469956","title":"DRC aims for control of artisanal cobalt supply","slug":"/blog/drc-aims-for-control-of-artisanal-cobalt-supply/","link":null,"excerpt":"The Democratic Republic of Congo has granted a monopoly to a new state-owned company that is being…","timeToRead":1,"featured":null,"thumbnailText":null,"date":"April 16, 2020","category":{"id":"40aa058e-c7de-5227-90d1-856df011951c","name":"Features","slug":"/blog/category/features/","color":"#97c252","icon":"/static/1de85bbd781531b61bf5a25b83d72d32/2.svg"},"author":null,"thumbnail":{"__typename":"ImageSharp","ImageSharp_vertical":{"layout":"constrained","backgroundColor":"#787898","images":{"fallback":{"src":"/static/a381cbe123484c239b97a005d5ce4a00/c3c3a/image.jpg","srcSet":"/static/a381cbe123484c239b97a005d5ce4a00/25bbe/image.jpg 190w,\n/static/a381cbe123484c239b97a005d5ce4a00/c3c3a/image.jpg 380w","sizes":"(min-width: 380px) 380px, 100vw"},"sources":[{"srcSet":"/static/a381cbe123484c239b97a005d5ce4a00/c50be/image.webp 190w,\n/static/a381cbe123484c239b97a005d5ce4a00/c4b86/image.webp 380w","type":"image/webp","sizes":"(min-width: 380px) 380px, 100vw"}]},"width":380,"height":290},"ImageSharp_hero":{"layout":"constrained","backgroundColor":"#787898","images":{"fallback":{"src":"/static/a381cbe123484c239b97a005d5ce4a00/b104e/image.jpg","srcSet":"/static/a381cbe123484c239b97a005d5ce4a00/2c034/image.jpg 800w,\n/static/a381cbe123484c239b97a005d5ce4a00/b104e/image.jpg 1600w","sizes":"(min-width: 1600px) 1600px, 100vw"},"sources":[{"srcSet":"/static/a381cbe123484c239b97a005d5ce4a00/dd444/image.webp 800w,\n/static/a381cbe123484c239b97a005d5ce4a00/68ede/image.webp 1600w","type":"image/webp","sizes":"(min-width: 1600px) 1600px, 100vw"}]},"width":1600,"height":650}}},{"id":"a62b458c-9346-57f6-ad31-819a46e9e7b8","title":"SGS Produces Silver Flotation Concentrate From Mine Tailings","slug":"/blog/sgs-produces-silver-flotation-concentrate-from-mine-tailings/","link":null,"excerpt":"Metallurgical testwork performed by SGS Lakefield has demonstrated that historic stamp mill tailings…","timeToRead":1,"featured":true,"thumbnailText":null,"date":"May 24, 2019","category":{"id":"cc9bc279-2aea-5557-b6df-da7e61199a9c","name":"Press Releases","slug":"/blog/category/press-releases/","color":"#97c252","icon":"/static/f41361d1715191a688f7243a90b28bc7/1.svg"},"author":null,"thumbnail":{"__typename":"ImageSharp","ImageSharp_vertical":{"layout":"constrained","backgroundColor":"#787898","images":{"fallback":{"src":"/static/a381cbe123484c239b97a005d5ce4a00/c3c3a/image.jpg","srcSet":"/static/a381cbe123484c239b97a005d5ce4a00/25bbe/image.jpg 190w,\n/static/a381cbe123484c239b97a005d5ce4a00/c3c3a/image.jpg 380w","sizes":"(min-width: 380px) 380px, 100vw"},"sources":[{"srcSet":"/static/a381cbe123484c239b97a005d5ce4a00/c50be/image.webp 190w,\n/static/a381cbe123484c239b97a005d5ce4a00/c4b86/image.webp 380w","type":"image/webp","sizes":"(min-width: 380px) 380px, 100vw"}]},"width":380,"height":290},"ImageSharp_hero":{"layout":"constrained","backgroundColor":"#787898","images":{"fallback":{"src":"/static/a381cbe123484c239b97a005d5ce4a00/b104e/image.jpg","srcSet":"/static/a381cbe123484c239b97a005d5ce4a00/2c034/image.jpg 800w,\n/static/a381cbe123484c239b97a005d5ce4a00/b104e/image.jpg 1600w","sizes":"(min-width: 1600px) 1600px, 100vw"},"sources":[{"srcSet":"/static/a381cbe123484c239b97a005d5ce4a00/dd444/image.webp 800w,\n/static/a381cbe123484c239b97a005d5ce4a00/68ede/image.webp 1600w","type":"image/webp","sizes":"(min-width: 1600px) 1600px, 100vw"}]},"width":1600,"height":650}}}],"pageInfo":{"pageCount":3,"hasPreviousPage":false,"hasNextPage":true,"currentPage":1},"totalCount":18}},"pageContext":{"slug":"/blog/tag/cobalt/","limit":6,"skip":0,"collectionType":"tags","paginatePostsPage":false,"basePath":"/blog/","services":{"algolia":false,"mailchimp":false,"disqus":false},"siteUrl":null,"mobileMenu":{"title":"Topics","items":[{"name":"Resources","slug":"/blog/category/resources/"},{"name":"Features","slug":"/blog/category/features/"},{"name":"Press Releases","slug":"/blog/category/press-releases/"}]},"darkMode":false}},"staticQueryHashes":["1434057858","1992822086","3371225411"]}