{"componentChunkName":"component---packages-blog-gatsby-blog-core-src-templates-collection-category-js","path":"/blog/category/press-releases/","result":{"data":{"collectionInfo":{"id":"cc9bc279-2aea-5557-b6df-da7e61199a9c","name":"Press Releases","slug":"/blog/category/press-releases/","description":"Lorem ipsum dolor sit amet, consectetur adipiscing elit, sed do eiusmod tempor incididunt ut labore."},"posts":{"nodes":[{"id":"b2f1f091-d365-5c87-8afa-440e8057d831","title":"Re-2Ox and Recovery of Critical US Strategic Metals","slug":"/blog/re-2ox-and-recovery-of-critical-us-strategic-metals/","link":null,"excerpt":"Processing Highlights Processing of mineralized core involves using one of the conventional mineral…","timeToRead":1,"featured":true,"thumbnailText":null,"date":"March 30, 2021","category":{"id":"cc9bc279-2aea-5557-b6df-da7e61199a9c","name":"Press Releases","slug":"/blog/category/press-releases/","color":"#97c252","icon":"/static/f41361d1715191a688f7243a90b28bc7/1.svg"},"author":null,"thumbnail":{"__typename":"ImageSharp","ImageSharp_vertical":{"layout":"constrained","backgroundColor":"#787898","images":{"fallback":{"src":"/static/a381cbe123484c239b97a005d5ce4a00/c3c3a/image.jpg","srcSet":"/static/a381cbe123484c239b97a005d5ce4a00/25bbe/image.jpg 190w,\n/static/a381cbe123484c239b97a005d5ce4a00/c3c3a/image.jpg 380w","sizes":"(min-width: 380px) 380px, 100vw"},"sources":[{"srcSet":"/static/a381cbe123484c239b97a005d5ce4a00/c50be/image.webp 190w,\n/static/a381cbe123484c239b97a005d5ce4a00/c4b86/image.webp 380w","type":"image/webp","sizes":"(min-width: 380px) 380px, 100vw"}]},"width":380,"height":290},"ImageSharp_hero":{"layout":"constrained","backgroundColor":"#787898","images":{"fallback":{"src":"/static/a381cbe123484c239b97a005d5ce4a00/b104e/image.jpg","srcSet":"/static/a381cbe123484c239b97a005d5ce4a00/2c034/image.jpg 800w,\n/static/a381cbe123484c239b97a005d5ce4a00/b104e/image.jpg 1600w","sizes":"(min-width: 1600px) 1600px, 100vw"},"sources":[{"srcSet":"/static/a381cbe123484c239b97a005d5ce4a00/dd444/image.webp 800w,\n/static/a381cbe123484c239b97a005d5ce4a00/68ede/image.webp 1600w","type":"image/webp","sizes":"(min-width: 1600px) 1600px, 100vw"}]},"width":1600,"height":650}}},{"id":"e8e0541c-359e-5c59-98ef-83d506028acb","title":"Progress Update on Bench-Scale Pilot Plant","slug":"/blog/progress-update-on-bench-scale-pilot-plant/","link":null,"excerpt":"Highlights First stage, flotation test rougher concentrate grades are 2,559 grams per tonne silver…","timeToRead":1,"featured":true,"thumbnailText":null,"date":"March 17, 2021","category":{"id":"cc9bc279-2aea-5557-b6df-da7e61199a9c","name":"Press Releases","slug":"/blog/category/press-releases/","color":"#97c252","icon":"/static/f41361d1715191a688f7243a90b28bc7/1.svg"},"author":null,"thumbnail":{"__typename":"ImageSharp","ImageSharp_vertical":{"layout":"constrained","backgroundColor":"#787898","images":{"fallback":{"src":"/static/a381cbe123484c239b97a005d5ce4a00/c3c3a/image.jpg","srcSet":"/static/a381cbe123484c239b97a005d5ce4a00/25bbe/image.jpg 190w,\n/static/a381cbe123484c239b97a005d5ce4a00/c3c3a/image.jpg 380w","sizes":"(min-width: 380px) 380px, 100vw"},"sources":[{"srcSet":"/static/a381cbe123484c239b97a005d5ce4a00/c50be/image.webp 190w,\n/static/a381cbe123484c239b97a005d5ce4a00/c4b86/image.webp 380w","type":"image/webp","sizes":"(min-width: 380px) 380px, 100vw"}]},"width":380,"height":290},"ImageSharp_hero":{"layout":"constrained","backgroundColor":"#787898","images":{"fallback":{"src":"/static/a381cbe123484c239b97a005d5ce4a00/b104e/image.jpg","srcSet":"/static/a381cbe123484c239b97a005d5ce4a00/2c034/image.jpg 800w,\n/static/a381cbe123484c239b97a005d5ce4a00/b104e/image.jpg 1600w","sizes":"(min-width: 1600px) 1600px, 100vw"},"sources":[{"srcSet":"/static/a381cbe123484c239b97a005d5ce4a00/dd444/image.webp 800w,\n/static/a381cbe123484c239b97a005d5ce4a00/68ede/image.webp 1600w","type":"image/webp","sizes":"(min-width: 1600px) 1600px, 100vw"}]},"width":1600,"height":650}}},{"id":"9727b8a1-d3aa-5f77-8e73-b2124be89115","title":"Battery Recycling Tests Begins Using the Re-2Ox Process","slug":"/blog/battery-recycling-tests-begins-using-the-re-2ox-process/","link":null,"excerpt":"Highlights The company has begun bench and pilot plant studies at SGS Canada for battery recycling…","timeToRead":1,"featured":true,"thumbnailText":null,"date":"March 01, 2021","category":{"id":"cc9bc279-2aea-5557-b6df-da7e61199a9c","name":"Press Releases","slug":"/blog/category/press-releases/","color":"#97c252","icon":"/static/f41361d1715191a688f7243a90b28bc7/1.svg"},"author":null,"thumbnail":{"__typename":"ImageSharp","ImageSharp_vertical":{"layout":"constrained","backgroundColor":"#787898","images":{"fallback":{"src":"/static/a381cbe123484c239b97a005d5ce4a00/c3c3a/image.jpg","srcSet":"/static/a381cbe123484c239b97a005d5ce4a00/25bbe/image.jpg 190w,\n/static/a381cbe123484c239b97a005d5ce4a00/c3c3a/image.jpg 380w","sizes":"(min-width: 380px) 380px, 100vw"},"sources":[{"srcSet":"/static/a381cbe123484c239b97a005d5ce4a00/c50be/image.webp 190w,\n/static/a381cbe123484c239b97a005d5ce4a00/c4b86/image.webp 380w","type":"image/webp","sizes":"(min-width: 380px) 380px, 100vw"}]},"width":380,"height":290},"ImageSharp_hero":{"layout":"constrained","backgroundColor":"#787898","images":{"fallback":{"src":"/static/a381cbe123484c239b97a005d5ce4a00/b104e/image.jpg","srcSet":"/static/a381cbe123484c239b97a005d5ce4a00/2c034/image.jpg 800w,\n/static/a381cbe123484c239b97a005d5ce4a00/b104e/image.jpg 1600w","sizes":"(min-width: 1600px) 1600px, 100vw"},"sources":[{"srcSet":"/static/a381cbe123484c239b97a005d5ce4a00/dd444/image.webp 800w,\n/static/a381cbe123484c239b97a005d5ce4a00/68ede/image.webp 1600w","type":"image/webp","sizes":"(min-width: 1600px) 1600px, 100vw"}]},"width":1600,"height":650}}},{"id":"cf49cd9c-49ac-5e30-83ae-7d507640bcba","title":"SGS Retained for Re-2OX Pilot Plant for Battery Metals Production","slug":"/blog/sgs-retained-for-re-2ox-pilot-plant-for-battery-metals-production/","link":null,"excerpt":"An agreement has been signed with SGS Canada Inc. to proceed with the Re-2OX pilot plant. This…","timeToRead":3,"featured":null,"thumbnailText":null,"date":"January 15, 2021","category":{"id":"cc9bc279-2aea-5557-b6df-da7e61199a9c","name":"Press Releases","slug":"/blog/category/press-releases/","color":"#97c252","icon":"/static/f41361d1715191a688f7243a90b28bc7/1.svg"},"author":null,"thumbnail":{"__typename":"ImageSharp","ImageSharp_vertical":{"layout":"constrained","backgroundColor":"#787898","images":{"fallback":{"src":"/static/a381cbe123484c239b97a005d5ce4a00/c3c3a/image.jpg","srcSet":"/static/a381cbe123484c239b97a005d5ce4a00/25bbe/image.jpg 190w,\n/static/a381cbe123484c239b97a005d5ce4a00/c3c3a/image.jpg 380w","sizes":"(min-width: 380px) 380px, 100vw"},"sources":[{"srcSet":"/static/a381cbe123484c239b97a005d5ce4a00/c50be/image.webp 190w,\n/static/a381cbe123484c239b97a005d5ce4a00/c4b86/image.webp 380w","type":"image/webp","sizes":"(min-width: 380px) 380px, 100vw"}]},"width":380,"height":290},"ImageSharp_hero":{"layout":"constrained","backgroundColor":"#787898","images":{"fallback":{"src":"/static/a381cbe123484c239b97a005d5ce4a00/b104e/image.jpg","srcSet":"/static/a381cbe123484c239b97a005d5ce4a00/2c034/image.jpg 800w,\n/static/a381cbe123484c239b97a005d5ce4a00/b104e/image.jpg 1600w","sizes":"(min-width: 1600px) 1600px, 100vw"},"sources":[{"srcSet":"/static/a381cbe123484c239b97a005d5ce4a00/dd444/image.webp 800w,\n/static/a381cbe123484c239b97a005d5ce4a00/68ede/image.webp 1600w","type":"image/webp","sizes":"(min-width: 1600px) 1600px, 100vw"}]},"width":1600,"height":650}}},{"id":"a62b458c-9346-57f6-ad31-819a46e9e7b8","title":"SGS Produces Silver Flotation Concentrate From Mine Tailings","slug":"/blog/sgs-produces-silver-flotation-concentrate-from-mine-tailings/","link":null,"excerpt":"Metallurgical testwork performed by SGS Lakefield has demonstrated that historic stamp mill tailings…","timeToRead":1,"featured":true,"thumbnailText":null,"date":"May 24, 2019","category":{"id":"cc9bc279-2aea-5557-b6df-da7e61199a9c","name":"Press Releases","slug":"/blog/category/press-releases/","color":"#97c252","icon":"/static/f41361d1715191a688f7243a90b28bc7/1.svg"},"author":null,"thumbnail":{"__typename":"ImageSharp","ImageSharp_vertical":{"layout":"constrained","backgroundColor":"#787898","images":{"fallback":{"src":"/static/a381cbe123484c239b97a005d5ce4a00/c3c3a/image.jpg","srcSet":"/static/a381cbe123484c239b97a005d5ce4a00/25bbe/image.jpg 190w,\n/static/a381cbe123484c239b97a005d5ce4a00/c3c3a/image.jpg 380w","sizes":"(min-width: 380px) 380px, 100vw"},"sources":[{"srcSet":"/static/a381cbe123484c239b97a005d5ce4a00/c50be/image.webp 190w,\n/static/a381cbe123484c239b97a005d5ce4a00/c4b86/image.webp 380w","type":"image/webp","sizes":"(min-width: 380px) 380px, 100vw"}]},"width":380,"height":290},"ImageSharp_hero":{"layout":"constrained","backgroundColor":"#787898","images":{"fallback":{"src":"/static/a381cbe123484c239b97a005d5ce4a00/b104e/image.jpg","srcSet":"/static/a381cbe123484c239b97a005d5ce4a00/2c034/image.jpg 800w,\n/static/a381cbe123484c239b97a005d5ce4a00/b104e/image.jpg 1600w","sizes":"(min-width: 1600px) 1600px, 100vw"},"sources":[{"srcSet":"/static/a381cbe123484c239b97a005d5ce4a00/dd444/image.webp 800w,\n/static/a381cbe123484c239b97a005d5ce4a00/68ede/image.webp 1600w","type":"image/webp","sizes":"(min-width: 1600px) 1600px, 100vw"}]},"width":1600,"height":650}}},{"id":"33129f79-f5d9-5009-8dd7-778643478739","title":"Canada Cobalt Initiates Re-2OX Patent Process","slug":"/blog/canada-cobalt-initiates-re-2ox-patent-process/","link":null,"excerpt":"The Company has made important breakthroughs in its proprietary and environmentally green Re-2OX…","timeToRead":1,"featured":null,"thumbnailText":null,"date":"April 30, 2019","category":{"id":"cc9bc279-2aea-5557-b6df-da7e61199a9c","name":"Press Releases","slug":"/blog/category/press-releases/","color":"#97c252","icon":"/static/f41361d1715191a688f7243a90b28bc7/1.svg"},"author":null,"thumbnail":{"__typename":"ImageSharp","ImageSharp_vertical":{"layout":"constrained","backgroundColor":"#787898","images":{"fallback":{"src":"/static/a381cbe123484c239b97a005d5ce4a00/c3c3a/image.jpg","srcSet":"/static/a381cbe123484c239b97a005d5ce4a00/25bbe/image.jpg 190w,\n/static/a381cbe123484c239b97a005d5ce4a00/c3c3a/image.jpg 380w","sizes":"(min-width: 380px) 380px, 100vw"},"sources":[{"srcSet":"/static/a381cbe123484c239b97a005d5ce4a00/c50be/image.webp 190w,\n/static/a381cbe123484c239b97a005d5ce4a00/c4b86/image.webp 380w","type":"image/webp","sizes":"(min-width: 380px) 380px, 100vw"}]},"width":380,"height":290},"ImageSharp_hero":{"layout":"constrained","backgroundColor":"#787898","images":{"fallback":{"src":"/static/a381cbe123484c239b97a005d5ce4a00/b104e/image.jpg","srcSet":"/static/a381cbe123484c239b97a005d5ce4a00/2c034/image.jpg 800w,\n/static/a381cbe123484c239b97a005d5ce4a00/b104e/image.jpg 1600w","sizes":"(min-width: 1600px) 1600px, 100vw"},"sources":[{"srcSet":"/static/a381cbe123484c239b97a005d5ce4a00/dd444/image.webp 800w,\n/static/a381cbe123484c239b97a005d5ce4a00/68ede/image.webp 1600w","type":"image/webp","sizes":"(min-width: 1600px) 1600px, 100vw"}]},"width":1600,"height":650}}}],"pageInfo":{"pageCount":2,"hasPreviousPage":false,"hasNextPage":true,"currentPage":1},"totalCount":12}},"pageContext":{"slug":"/blog/category/press-releases/","limit":6,"skip":0,"collectionType":"category","paginatePostsPage":false,"basePath":"/blog/","services":{"algolia":false,"mailchimp":false,"disqus":false},"siteUrl":null,"mobileMenu":{"title":"Topics","items":[{"name":"Resources","slug":"/blog/category/resources/"},{"name":"Features","slug":"/blog/category/features/"},{"name":"Press Releases","slug":"/blog/category/press-releases/"}]},"darkMode":false}},"staticQueryHashes":["1434057858","1992822086","3371225411"]}