{"componentChunkName":"component---packages-blog-gatsby-blog-core-src-templates-collection-tag-js","path":"/blog/tag/battery/page/2/","result":{"data":{"collectionInfo":{"id":"75bdf5be-1c5d-5ded-abe1-e3885c58869f","name":"#battery","slug":"/blog/tag/battery/"},"posts":{"nodes":[{"id":"7f5263ae-5c77-58a7-a807-acd1401717a8","title":"Leadership status in Battery Metals Race","slug":"/blog/leadership-status-in-battery-metals-race/","link":null,"excerpt":"Battery metals, including cobalt, lithium and nickel, continue to attract the attention of investors…","timeToRead":1,"featured":true,"thumbnailText":null,"date":"January 16, 2019","category":{"id":"40aa058e-c7de-5227-90d1-856df011951c","name":"Features","slug":"/blog/category/features/","color":"#97c252","icon":"/static/1de85bbd781531b61bf5a25b83d72d32/2.svg"},"author":null,"thumbnail":{"__typename":"ImageSharp","ImageSharp_vertical":{"layout":"constrained","backgroundColor":"#787898","images":{"fallback":{"src":"/static/a381cbe123484c239b97a005d5ce4a00/c3c3a/image.jpg","srcSet":"/static/a381cbe123484c239b97a005d5ce4a00/25bbe/image.jpg 190w,\n/static/a381cbe123484c239b97a005d5ce4a00/c3c3a/image.jpg 380w","sizes":"(min-width: 380px) 380px, 100vw"},"sources":[{"srcSet":"/static/a381cbe123484c239b97a005d5ce4a00/c50be/image.webp 190w,\n/static/a381cbe123484c239b97a005d5ce4a00/c4b86/image.webp 380w","type":"image/webp","sizes":"(min-width: 380px) 380px, 100vw"}]},"width":380,"height":290},"ImageSharp_hero":{"layout":"constrained","backgroundColor":"#787898","images":{"fallback":{"src":"/static/a381cbe123484c239b97a005d5ce4a00/b104e/image.jpg","srcSet":"/static/a381cbe123484c239b97a005d5ce4a00/2c034/image.jpg 800w,\n/static/a381cbe123484c239b97a005d5ce4a00/b104e/image.jpg 1600w","sizes":"(min-width: 1600px) 1600px, 100vw"},"sources":[{"srcSet":"/static/a381cbe123484c239b97a005d5ce4a00/dd444/image.webp 800w,\n/static/a381cbe123484c239b97a005d5ce4a00/68ede/image.webp 1600w","type":"image/webp","sizes":"(min-width: 1600px) 1600px, 100vw"}]},"width":1600,"height":650}}},{"id":"464d7eb5-ca05-511d-bb94-47b703312218","title":"Exceeding the technical specifications of cathode producers in Asia","slug":"/blog/exceeding-the-technical-specifications-of-cathode-producers-in-asia/","link":null,"excerpt":"Canada Cobalt has assembled a pilot plant at its Castle property to produce bulk gravity…","timeToRead":1,"featured":null,"thumbnailText":null,"date":"September 27, 2018","category":{"id":"40aa058e-c7de-5227-90d1-856df011951c","name":"Features","slug":"/blog/category/features/","color":"#97c252","icon":"/static/1de85bbd781531b61bf5a25b83d72d32/2.svg"},"author":null,"thumbnail":{"__typename":"ImageSharp","ImageSharp_vertical":{"layout":"constrained","backgroundColor":"#787898","images":{"fallback":{"src":"/static/a381cbe123484c239b97a005d5ce4a00/c3c3a/image.jpg","srcSet":"/static/a381cbe123484c239b97a005d5ce4a00/25bbe/image.jpg 190w,\n/static/a381cbe123484c239b97a005d5ce4a00/c3c3a/image.jpg 380w","sizes":"(min-width: 380px) 380px, 100vw"},"sources":[{"srcSet":"/static/a381cbe123484c239b97a005d5ce4a00/c50be/image.webp 190w,\n/static/a381cbe123484c239b97a005d5ce4a00/c4b86/image.webp 380w","type":"image/webp","sizes":"(min-width: 380px) 380px, 100vw"}]},"width":380,"height":290},"ImageSharp_hero":{"layout":"constrained","backgroundColor":"#787898","images":{"fallback":{"src":"/static/a381cbe123484c239b97a005d5ce4a00/b104e/image.jpg","srcSet":"/static/a381cbe123484c239b97a005d5ce4a00/2c034/image.jpg 800w,\n/static/a381cbe123484c239b97a005d5ce4a00/b104e/image.jpg 1600w","sizes":"(min-width: 1600px) 1600px, 100vw"},"sources":[{"srcSet":"/static/a381cbe123484c239b97a005d5ce4a00/dd444/image.webp 800w,\n/static/a381cbe123484c239b97a005d5ce4a00/68ede/image.webp 1600w","type":"image/webp","sizes":"(min-width: 1600px) 1600px, 100vw"}]},"width":1600,"height":650}}},{"id":"6ee091d0-afff-5805-a232-683c9eb9091b","title":"Canada Cobalt appoints Dr. Ron Molnar","slug":"/blog/canada-cobalt-appoints-dr.-ron-molnar/","link":null,"excerpt":"Highlights: Continued underground bulk sampling at the Castle mine has assayed  2.46%  cobalt and…","timeToRead":1,"featured":true,"thumbnailText":null,"date":"March 16, 2018","category":{"id":"cc9bc279-2aea-5557-b6df-da7e61199a9c","name":"Press Releases","slug":"/blog/category/press-releases/","color":"#97c252","icon":"/static/f41361d1715191a688f7243a90b28bc7/1.svg"},"author":null,"thumbnail":{"__typename":"ImageSharp","ImageSharp_vertical":{"layout":"constrained","backgroundColor":"#787898","images":{"fallback":{"src":"/static/a381cbe123484c239b97a005d5ce4a00/c3c3a/image.jpg","srcSet":"/static/a381cbe123484c239b97a005d5ce4a00/25bbe/image.jpg 190w,\n/static/a381cbe123484c239b97a005d5ce4a00/c3c3a/image.jpg 380w","sizes":"(min-width: 380px) 380px, 100vw"},"sources":[{"srcSet":"/static/a381cbe123484c239b97a005d5ce4a00/c50be/image.webp 190w,\n/static/a381cbe123484c239b97a005d5ce4a00/c4b86/image.webp 380w","type":"image/webp","sizes":"(min-width: 380px) 380px, 100vw"}]},"width":380,"height":290},"ImageSharp_hero":{"layout":"constrained","backgroundColor":"#787898","images":{"fallback":{"src":"/static/a381cbe123484c239b97a005d5ce4a00/b104e/image.jpg","srcSet":"/static/a381cbe123484c239b97a005d5ce4a00/2c034/image.jpg 800w,\n/static/a381cbe123484c239b97a005d5ce4a00/b104e/image.jpg 1600w","sizes":"(min-width: 1600px) 1600px, 100vw"},"sources":[{"srcSet":"/static/a381cbe123484c239b97a005d5ce4a00/dd444/image.webp 800w,\n/static/a381cbe123484c239b97a005d5ce4a00/68ede/image.webp 1600w","type":"image/webp","sizes":"(min-width: 1600px) 1600px, 100vw"}]},"width":1600,"height":650}}}],"pageInfo":{"pageCount":2,"hasPreviousPage":true,"hasNextPage":false,"currentPage":2},"totalCount":9}},"pageContext":{"slug":"/blog/tag/battery/","limit":6,"skip":6,"collectionType":"tags","paginatePostsPage":false,"basePath":"/blog/","services":{"algolia":false,"mailchimp":false,"disqus":false},"siteUrl":null,"mobileMenu":{"title":"Topics","items":[{"name":"Resources","slug":"/blog/category/resources/"},{"name":"Features","slug":"/blog/category/features/"},{"name":"Press Releases","slug":"/blog/category/press-releases/"}]},"darkMode":false}},"staticQueryHashes":["1434057858","1992822086","3371225411"]}