{"componentChunkName":"component---packages-blog-gatsby-blog-core-src-templates-collection-tag-js","path":"/blog/tag/cobalt/page/3/","result":{"data":{"collectionInfo":{"id":"1e2b40ae-5a2c-5f18-81b2-12b6d654c584","name":"#cobalt","slug":"/blog/tag/cobalt/"},"posts":{"nodes":[{"id":"91b5bcba-de29-5b41-8132-5c0d484f7ad1","title":"Re-2Ox Produces 22.6% Cobalt Sulphate","slug":"/blog/re-2ox-produces-22.6percent-cobalt-sulphate/","link":null,"excerpt":"Through its proprietary Re-2OX process at SGS Lakefield, the Company has produced the first-ever…","timeToRead":1,"featured":null,"thumbnailText":null,"date":"August 15, 2018","category":{"id":"cc9bc279-2aea-5557-b6df-da7e61199a9c","name":"Press Releases","slug":"/blog/category/press-releases/","color":"#97c252","icon":"/static/f41361d1715191a688f7243a90b28bc7/1.svg"},"author":null,"thumbnail":{"__typename":"ImageSharp","ImageSharp_vertical":{"layout":"constrained","backgroundColor":"#787898","images":{"fallback":{"src":"/static/a381cbe123484c239b97a005d5ce4a00/c3c3a/image.jpg","srcSet":"/static/a381cbe123484c239b97a005d5ce4a00/25bbe/image.jpg 190w,\n/static/a381cbe123484c239b97a005d5ce4a00/c3c3a/image.jpg 380w","sizes":"(min-width: 380px) 380px, 100vw"},"sources":[{"srcSet":"/static/a381cbe123484c239b97a005d5ce4a00/c50be/image.webp 190w,\n/static/a381cbe123484c239b97a005d5ce4a00/c4b86/image.webp 380w","type":"image/webp","sizes":"(min-width: 380px) 380px, 100vw"}]},"width":380,"height":290},"ImageSharp_hero":{"layout":"constrained","backgroundColor":"#787898","images":{"fallback":{"src":"/static/a381cbe123484c239b97a005d5ce4a00/b104e/image.jpg","srcSet":"/static/a381cbe123484c239b97a005d5ce4a00/2c034/image.jpg 800w,\n/static/a381cbe123484c239b97a005d5ce4a00/b104e/image.jpg 1600w","sizes":"(min-width: 1600px) 1600px, 100vw"},"sources":[{"srcSet":"/static/a381cbe123484c239b97a005d5ce4a00/dd444/image.webp 800w,\n/static/a381cbe123484c239b97a005d5ce4a00/68ede/image.webp 1600w","type":"image/webp","sizes":"(min-width: 1600px) 1600px, 100vw"}]},"width":1600,"height":650}}},{"id":"8bb5e4a4-ee81-5a51-8f75-122e94bd6459","title":"Canada Cobalt Launches Pilot Plant","slug":"/blog/canada-cobalt-launches-pilot-plant/","link":null,"excerpt":"Highlights: Pilot plant assembly at the Castle mine is proceeding ahead of schedule with the jaw…","timeToRead":1,"featured":true,"thumbnailText":null,"date":"July 25, 2018","category":{"id":"cc9bc279-2aea-5557-b6df-da7e61199a9c","name":"Press Releases","slug":"/blog/category/press-releases/","color":"#97c252","icon":"/static/f41361d1715191a688f7243a90b28bc7/1.svg"},"author":null,"thumbnail":{"__typename":"ImageSharp","ImageSharp_vertical":{"layout":"constrained","backgroundColor":"#787898","images":{"fallback":{"src":"/static/a381cbe123484c239b97a005d5ce4a00/c3c3a/image.jpg","srcSet":"/static/a381cbe123484c239b97a005d5ce4a00/25bbe/image.jpg 190w,\n/static/a381cbe123484c239b97a005d5ce4a00/c3c3a/image.jpg 380w","sizes":"(min-width: 380px) 380px, 100vw"},"sources":[{"srcSet":"/static/a381cbe123484c239b97a005d5ce4a00/c50be/image.webp 190w,\n/static/a381cbe123484c239b97a005d5ce4a00/c4b86/image.webp 380w","type":"image/webp","sizes":"(min-width: 380px) 380px, 100vw"}]},"width":380,"height":290},"ImageSharp_hero":{"layout":"constrained","backgroundColor":"#787898","images":{"fallback":{"src":"/static/a381cbe123484c239b97a005d5ce4a00/b104e/image.jpg","srcSet":"/static/a381cbe123484c239b97a005d5ce4a00/2c034/image.jpg 800w,\n/static/a381cbe123484c239b97a005d5ce4a00/b104e/image.jpg 1600w","sizes":"(min-width: 1600px) 1600px, 100vw"},"sources":[{"srcSet":"/static/a381cbe123484c239b97a005d5ce4a00/dd444/image.webp 800w,\n/static/a381cbe123484c239b97a005d5ce4a00/68ede/image.webp 1600w","type":"image/webp","sizes":"(min-width: 1600px) 1600px, 100vw"}]},"width":1600,"height":650}}},{"id":"59284746-f7af-5962-99cf-6d11f8f46e33","title":"Winning the race in Canada’s Cobalt Camp","slug":"/blog/winning-the-race-in-canadas-cobalt-camp/","link":null,"excerpt":"According to the Company they are the most advanced of all the juniors in the Northern Ontario…","timeToRead":1,"featured":true,"thumbnailText":null,"date":"July 19, 2018","category":{"id":"40aa058e-c7de-5227-90d1-856df011951c","name":"Features","slug":"/blog/category/features/","color":"#97c252","icon":"/static/1de85bbd781531b61bf5a25b83d72d32/2.svg"},"author":null,"thumbnail":{"__typename":"ImageSharp","ImageSharp_vertical":{"layout":"constrained","backgroundColor":"#787898","images":{"fallback":{"src":"/static/a381cbe123484c239b97a005d5ce4a00/c3c3a/image.jpg","srcSet":"/static/a381cbe123484c239b97a005d5ce4a00/25bbe/image.jpg 190w,\n/static/a381cbe123484c239b97a005d5ce4a00/c3c3a/image.jpg 380w","sizes":"(min-width: 380px) 380px, 100vw"},"sources":[{"srcSet":"/static/a381cbe123484c239b97a005d5ce4a00/c50be/image.webp 190w,\n/static/a381cbe123484c239b97a005d5ce4a00/c4b86/image.webp 380w","type":"image/webp","sizes":"(min-width: 380px) 380px, 100vw"}]},"width":380,"height":290},"ImageSharp_hero":{"layout":"constrained","backgroundColor":"#787898","images":{"fallback":{"src":"/static/a381cbe123484c239b97a005d5ce4a00/b104e/image.jpg","srcSet":"/static/a381cbe123484c239b97a005d5ce4a00/2c034/image.jpg 800w,\n/static/a381cbe123484c239b97a005d5ce4a00/b104e/image.jpg 1600w","sizes":"(min-width: 1600px) 1600px, 100vw"},"sources":[{"srcSet":"/static/a381cbe123484c239b97a005d5ce4a00/dd444/image.webp 800w,\n/static/a381cbe123484c239b97a005d5ce4a00/68ede/image.webp 1600w","type":"image/webp","sizes":"(min-width: 1600px) 1600px, 100vw"}]},"width":1600,"height":650}}},{"id":"1a0e22c0-9a28-5397-85b0-9d832d0e2520","title":"Canada Cobalt Sets up Pilot Plant at Castle Mine","slug":"/blog/canada-cobalt-sets-up-pilot-plant-at-castle-mine/","link":null,"excerpt":"Highlights: Canada Cobalt is now assembling a pilot plant at the Castle mine to produce bulk gravity…","timeToRead":1,"featured":true,"thumbnailText":null,"date":"June 28, 2018","category":{"id":"cc9bc279-2aea-5557-b6df-da7e61199a9c","name":"Press Releases","slug":"/blog/category/press-releases/","color":"#97c252","icon":"/static/f41361d1715191a688f7243a90b28bc7/1.svg"},"author":null,"thumbnail":{"__typename":"ImageSharp","ImageSharp_vertical":{"layout":"constrained","backgroundColor":"#787898","images":{"fallback":{"src":"/static/a381cbe123484c239b97a005d5ce4a00/c3c3a/image.jpg","srcSet":"/static/a381cbe123484c239b97a005d5ce4a00/25bbe/image.jpg 190w,\n/static/a381cbe123484c239b97a005d5ce4a00/c3c3a/image.jpg 380w","sizes":"(min-width: 380px) 380px, 100vw"},"sources":[{"srcSet":"/static/a381cbe123484c239b97a005d5ce4a00/c50be/image.webp 190w,\n/static/a381cbe123484c239b97a005d5ce4a00/c4b86/image.webp 380w","type":"image/webp","sizes":"(min-width: 380px) 380px, 100vw"}]},"width":380,"height":290},"ImageSharp_hero":{"layout":"constrained","backgroundColor":"#787898","images":{"fallback":{"src":"/static/a381cbe123484c239b97a005d5ce4a00/b104e/image.jpg","srcSet":"/static/a381cbe123484c239b97a005d5ce4a00/2c034/image.jpg 800w,\n/static/a381cbe123484c239b97a005d5ce4a00/b104e/image.jpg 1600w","sizes":"(min-width: 1600px) 1600px, 100vw"},"sources":[{"srcSet":"/static/a381cbe123484c239b97a005d5ce4a00/dd444/image.webp 800w,\n/static/a381cbe123484c239b97a005d5ce4a00/68ede/image.webp 1600w","type":"image/webp","sizes":"(min-width: 1600px) 1600px, 100vw"}]},"width":1600,"height":650}}},{"id":"f50de4f9-4ac0-5622-8eea-ef05fc3179cf","title":"Re-2OX Process Achieves 99% Cobalt Recovery","slug":"/blog/re-2ox-process-achieves-99percent-cobalt-recovery/","link":null,"excerpt":"As crews prepare for imminent and first-ever underground drilling targeting cobalt at the Castle…","timeToRead":1,"featured":null,"thumbnailText":null,"date":"May 31, 2018","category":{"id":"cc9bc279-2aea-5557-b6df-da7e61199a9c","name":"Press Releases","slug":"/blog/category/press-releases/","color":"#97c252","icon":"/static/f41361d1715191a688f7243a90b28bc7/1.svg"},"author":null,"thumbnail":{"__typename":"ImageSharp","ImageSharp_vertical":{"layout":"constrained","backgroundColor":"#787898","images":{"fallback":{"src":"/static/a381cbe123484c239b97a005d5ce4a00/c3c3a/image.jpg","srcSet":"/static/a381cbe123484c239b97a005d5ce4a00/25bbe/image.jpg 190w,\n/static/a381cbe123484c239b97a005d5ce4a00/c3c3a/image.jpg 380w","sizes":"(min-width: 380px) 380px, 100vw"},"sources":[{"srcSet":"/static/a381cbe123484c239b97a005d5ce4a00/c50be/image.webp 190w,\n/static/a381cbe123484c239b97a005d5ce4a00/c4b86/image.webp 380w","type":"image/webp","sizes":"(min-width: 380px) 380px, 100vw"}]},"width":380,"height":290},"ImageSharp_hero":{"layout":"constrained","backgroundColor":"#787898","images":{"fallback":{"src":"/static/a381cbe123484c239b97a005d5ce4a00/b104e/image.jpg","srcSet":"/static/a381cbe123484c239b97a005d5ce4a00/2c034/image.jpg 800w,\n/static/a381cbe123484c239b97a005d5ce4a00/b104e/image.jpg 1600w","sizes":"(min-width: 1600px) 1600px, 100vw"},"sources":[{"srcSet":"/static/a381cbe123484c239b97a005d5ce4a00/dd444/image.webp 800w,\n/static/a381cbe123484c239b97a005d5ce4a00/68ede/image.webp 1600w","type":"image/webp","sizes":"(min-width: 1600px) 1600px, 100vw"}]},"width":1600,"height":650}}},{"id":"6ee091d0-afff-5805-a232-683c9eb9091b","title":"Canada Cobalt appoints Dr. Ron Molnar","slug":"/blog/canada-cobalt-appoints-dr.-ron-molnar/","link":null,"excerpt":"Highlights: Continued underground bulk sampling at the Castle mine has assayed  2.46%  cobalt and…","timeToRead":1,"featured":true,"thumbnailText":null,"date":"March 16, 2018","category":{"id":"cc9bc279-2aea-5557-b6df-da7e61199a9c","name":"Press Releases","slug":"/blog/category/press-releases/","color":"#97c252","icon":"/static/f41361d1715191a688f7243a90b28bc7/1.svg"},"author":null,"thumbnail":{"__typename":"ImageSharp","ImageSharp_vertical":{"layout":"constrained","backgroundColor":"#787898","images":{"fallback":{"src":"/static/a381cbe123484c239b97a005d5ce4a00/c3c3a/image.jpg","srcSet":"/static/a381cbe123484c239b97a005d5ce4a00/25bbe/image.jpg 190w,\n/static/a381cbe123484c239b97a005d5ce4a00/c3c3a/image.jpg 380w","sizes":"(min-width: 380px) 380px, 100vw"},"sources":[{"srcSet":"/static/a381cbe123484c239b97a005d5ce4a00/c50be/image.webp 190w,\n/static/a381cbe123484c239b97a005d5ce4a00/c4b86/image.webp 380w","type":"image/webp","sizes":"(min-width: 380px) 380px, 100vw"}]},"width":380,"height":290},"ImageSharp_hero":{"layout":"constrained","backgroundColor":"#787898","images":{"fallback":{"src":"/static/a381cbe123484c239b97a005d5ce4a00/b104e/image.jpg","srcSet":"/static/a381cbe123484c239b97a005d5ce4a00/2c034/image.jpg 800w,\n/static/a381cbe123484c239b97a005d5ce4a00/b104e/image.jpg 1600w","sizes":"(min-width: 1600px) 1600px, 100vw"},"sources":[{"srcSet":"/static/a381cbe123484c239b97a005d5ce4a00/dd444/image.webp 800w,\n/static/a381cbe123484c239b97a005d5ce4a00/68ede/image.webp 1600w","type":"image/webp","sizes":"(min-width: 1600px) 1600px, 100vw"}]},"width":1600,"height":650}}}],"pageInfo":{"pageCount":3,"hasPreviousPage":true,"hasNextPage":false,"currentPage":3},"totalCount":18}},"pageContext":{"slug":"/blog/tag/cobalt/","limit":6,"skip":12,"collectionType":"tags","paginatePostsPage":false,"basePath":"/blog/","services":{"algolia":false,"mailchimp":false,"disqus":false},"siteUrl":null,"mobileMenu":{"title":"Topics","items":[{"name":"Resources","slug":"/blog/category/resources/"},{"name":"Features","slug":"/blog/category/features/"},{"name":"Press Releases","slug":"/blog/category/press-releases/"}]},"darkMode":false}},"staticQueryHashes":["1434057858","1992822086","3371225411"]}