{"componentChunkName":"component---packages-blog-gatsby-blog-core-src-templates-collection-tag-js","path":"/blog/tag/technology/page/3/","result":{"data":{"collectionInfo":{"id":"2a22f737-aaf6-56bf-af7b-9e89abacd8b7","name":"#technology","slug":"/blog/tag/technology/"},"posts":{"nodes":[{"id":"52525bd6-d87c-5a72-bcd0-c7d559469956","title":"DRC aims for control of artisanal cobalt supply","slug":"/blog/drc-aims-for-control-of-artisanal-cobalt-supply/","link":null,"excerpt":"The Democratic Republic of Congo has granted a monopoly to a new state-owned company that is being…","timeToRead":1,"featured":null,"thumbnailText":null,"date":"April 16, 2020","category":{"id":"40aa058e-c7de-5227-90d1-856df011951c","name":"Features","slug":"/blog/category/features/","color":"#97c252","icon":"/static/1de85bbd781531b61bf5a25b83d72d32/2.svg"},"author":null,"thumbnail":{"__typename":"ImageSharp","ImageSharp_vertical":{"layout":"constrained","backgroundColor":"#787898","images":{"fallback":{"src":"/static/a381cbe123484c239b97a005d5ce4a00/c3c3a/image.jpg","srcSet":"/static/a381cbe123484c239b97a005d5ce4a00/25bbe/image.jpg 190w,\n/static/a381cbe123484c239b97a005d5ce4a00/c3c3a/image.jpg 380w","sizes":"(min-width: 380px) 380px, 100vw"},"sources":[{"srcSet":"/static/a381cbe123484c239b97a005d5ce4a00/c50be/image.webp 190w,\n/static/a381cbe123484c239b97a005d5ce4a00/c4b86/image.webp 380w","type":"image/webp","sizes":"(min-width: 380px) 380px, 100vw"}]},"width":380,"height":290},"ImageSharp_hero":{"layout":"constrained","backgroundColor":"#787898","images":{"fallback":{"src":"/static/a381cbe123484c239b97a005d5ce4a00/b104e/image.jpg","srcSet":"/static/a381cbe123484c239b97a005d5ce4a00/2c034/image.jpg 800w,\n/static/a381cbe123484c239b97a005d5ce4a00/b104e/image.jpg 1600w","sizes":"(min-width: 1600px) 1600px, 100vw"},"sources":[{"srcSet":"/static/a381cbe123484c239b97a005d5ce4a00/dd444/image.webp 800w,\n/static/a381cbe123484c239b97a005d5ce4a00/68ede/image.webp 1600w","type":"image/webp","sizes":"(min-width: 1600px) 1600px, 100vw"}]},"width":1600,"height":650}}},{"id":"dd3b6438-1451-539b-bf72-930ed7f7c1bf","title":"Canada Cobalt moves to fund battery sector strategy","slug":"/blog/canada-cobalt-moves-to-fund-battery-sector-strategy/","link":null,"excerpt":"Canada Cobalt Works aims to develop a number of business lines that include exploration and mining…","timeToRead":1,"featured":null,"thumbnailText":null,"date":"May 18, 2019","category":{"id":"40aa058e-c7de-5227-90d1-856df011951c","name":"Features","slug":"/blog/category/features/","color":"#97c252","icon":"/static/1de85bbd781531b61bf5a25b83d72d32/2.svg"},"author":null,"thumbnail":{"__typename":"ImageSharp","ImageSharp_vertical":{"layout":"constrained","backgroundColor":"#787898","images":{"fallback":{"src":"/static/a381cbe123484c239b97a005d5ce4a00/c3c3a/image.jpg","srcSet":"/static/a381cbe123484c239b97a005d5ce4a00/25bbe/image.jpg 190w,\n/static/a381cbe123484c239b97a005d5ce4a00/c3c3a/image.jpg 380w","sizes":"(min-width: 380px) 380px, 100vw"},"sources":[{"srcSet":"/static/a381cbe123484c239b97a005d5ce4a00/c50be/image.webp 190w,\n/static/a381cbe123484c239b97a005d5ce4a00/c4b86/image.webp 380w","type":"image/webp","sizes":"(min-width: 380px) 380px, 100vw"}]},"width":380,"height":290},"ImageSharp_hero":{"layout":"constrained","backgroundColor":"#787898","images":{"fallback":{"src":"/static/a381cbe123484c239b97a005d5ce4a00/b104e/image.jpg","srcSet":"/static/a381cbe123484c239b97a005d5ce4a00/2c034/image.jpg 800w,\n/static/a381cbe123484c239b97a005d5ce4a00/b104e/image.jpg 1600w","sizes":"(min-width: 1600px) 1600px, 100vw"},"sources":[{"srcSet":"/static/a381cbe123484c239b97a005d5ce4a00/dd444/image.webp 800w,\n/static/a381cbe123484c239b97a005d5ce4a00/68ede/image.webp 1600w","type":"image/webp","sizes":"(min-width: 1600px) 1600px, 100vw"}]},"width":1600,"height":650}}},{"id":"7f5263ae-5c77-58a7-a807-acd1401717a8","title":"Leadership status in Battery Metals Race","slug":"/blog/leadership-status-in-battery-metals-race/","link":null,"excerpt":"Battery metals, including cobalt, lithium and nickel, continue to attract the attention of investors…","timeToRead":1,"featured":true,"thumbnailText":null,"date":"January 16, 2019","category":{"id":"40aa058e-c7de-5227-90d1-856df011951c","name":"Features","slug":"/blog/category/features/","color":"#97c252","icon":"/static/1de85bbd781531b61bf5a25b83d72d32/2.svg"},"author":null,"thumbnail":{"__typename":"ImageSharp","ImageSharp_vertical":{"layout":"constrained","backgroundColor":"#787898","images":{"fallback":{"src":"/static/a381cbe123484c239b97a005d5ce4a00/c3c3a/image.jpg","srcSet":"/static/a381cbe123484c239b97a005d5ce4a00/25bbe/image.jpg 190w,\n/static/a381cbe123484c239b97a005d5ce4a00/c3c3a/image.jpg 380w","sizes":"(min-width: 380px) 380px, 100vw"},"sources":[{"srcSet":"/static/a381cbe123484c239b97a005d5ce4a00/c50be/image.webp 190w,\n/static/a381cbe123484c239b97a005d5ce4a00/c4b86/image.webp 380w","type":"image/webp","sizes":"(min-width: 380px) 380px, 100vw"}]},"width":380,"height":290},"ImageSharp_hero":{"layout":"constrained","backgroundColor":"#787898","images":{"fallback":{"src":"/static/a381cbe123484c239b97a005d5ce4a00/b104e/image.jpg","srcSet":"/static/a381cbe123484c239b97a005d5ce4a00/2c034/image.jpg 800w,\n/static/a381cbe123484c239b97a005d5ce4a00/b104e/image.jpg 1600w","sizes":"(min-width: 1600px) 1600px, 100vw"},"sources":[{"srcSet":"/static/a381cbe123484c239b97a005d5ce4a00/dd444/image.webp 800w,\n/static/a381cbe123484c239b97a005d5ce4a00/68ede/image.webp 1600w","type":"image/webp","sizes":"(min-width: 1600px) 1600px, 100vw"}]},"width":1600,"height":650}}},{"id":"8bb5e4a4-ee81-5a51-8f75-122e94bd6459","title":"Canada Cobalt Launches Pilot Plant","slug":"/blog/canada-cobalt-launches-pilot-plant/","link":null,"excerpt":"Highlights: Pilot plant assembly at the Castle mine is proceeding ahead of schedule with the jaw…","timeToRead":1,"featured":true,"thumbnailText":null,"date":"July 25, 2018","category":{"id":"cc9bc279-2aea-5557-b6df-da7e61199a9c","name":"Press Releases","slug":"/blog/category/press-releases/","color":"#97c252","icon":"/static/f41361d1715191a688f7243a90b28bc7/1.svg"},"author":null,"thumbnail":{"__typename":"ImageSharp","ImageSharp_vertical":{"layout":"constrained","backgroundColor":"#787898","images":{"fallback":{"src":"/static/a381cbe123484c239b97a005d5ce4a00/c3c3a/image.jpg","srcSet":"/static/a381cbe123484c239b97a005d5ce4a00/25bbe/image.jpg 190w,\n/static/a381cbe123484c239b97a005d5ce4a00/c3c3a/image.jpg 380w","sizes":"(min-width: 380px) 380px, 100vw"},"sources":[{"srcSet":"/static/a381cbe123484c239b97a005d5ce4a00/c50be/image.webp 190w,\n/static/a381cbe123484c239b97a005d5ce4a00/c4b86/image.webp 380w","type":"image/webp","sizes":"(min-width: 380px) 380px, 100vw"}]},"width":380,"height":290},"ImageSharp_hero":{"layout":"constrained","backgroundColor":"#787898","images":{"fallback":{"src":"/static/a381cbe123484c239b97a005d5ce4a00/b104e/image.jpg","srcSet":"/static/a381cbe123484c239b97a005d5ce4a00/2c034/image.jpg 800w,\n/static/a381cbe123484c239b97a005d5ce4a00/b104e/image.jpg 1600w","sizes":"(min-width: 1600px) 1600px, 100vw"},"sources":[{"srcSet":"/static/a381cbe123484c239b97a005d5ce4a00/dd444/image.webp 800w,\n/static/a381cbe123484c239b97a005d5ce4a00/68ede/image.webp 1600w","type":"image/webp","sizes":"(min-width: 1600px) 1600px, 100vw"}]},"width":1600,"height":650}}},{"id":"59284746-f7af-5962-99cf-6d11f8f46e33","title":"Winning the race in Canada’s Cobalt Camp","slug":"/blog/winning-the-race-in-canadas-cobalt-camp/","link":null,"excerpt":"According to the Company they are the most advanced of all the juniors in the Northern Ontario…","timeToRead":1,"featured":true,"thumbnailText":null,"date":"July 19, 2018","category":{"id":"40aa058e-c7de-5227-90d1-856df011951c","name":"Features","slug":"/blog/category/features/","color":"#97c252","icon":"/static/1de85bbd781531b61bf5a25b83d72d32/2.svg"},"author":null,"thumbnail":{"__typename":"ImageSharp","ImageSharp_vertical":{"layout":"constrained","backgroundColor":"#787898","images":{"fallback":{"src":"/static/a381cbe123484c239b97a005d5ce4a00/c3c3a/image.jpg","srcSet":"/static/a381cbe123484c239b97a005d5ce4a00/25bbe/image.jpg 190w,\n/static/a381cbe123484c239b97a005d5ce4a00/c3c3a/image.jpg 380w","sizes":"(min-width: 380px) 380px, 100vw"},"sources":[{"srcSet":"/static/a381cbe123484c239b97a005d5ce4a00/c50be/image.webp 190w,\n/static/a381cbe123484c239b97a005d5ce4a00/c4b86/image.webp 380w","type":"image/webp","sizes":"(min-width: 380px) 380px, 100vw"}]},"width":380,"height":290},"ImageSharp_hero":{"layout":"constrained","backgroundColor":"#787898","images":{"fallback":{"src":"/static/a381cbe123484c239b97a005d5ce4a00/b104e/image.jpg","srcSet":"/static/a381cbe123484c239b97a005d5ce4a00/2c034/image.jpg 800w,\n/static/a381cbe123484c239b97a005d5ce4a00/b104e/image.jpg 1600w","sizes":"(min-width: 1600px) 1600px, 100vw"},"sources":[{"srcSet":"/static/a381cbe123484c239b97a005d5ce4a00/dd444/image.webp 800w,\n/static/a381cbe123484c239b97a005d5ce4a00/68ede/image.webp 1600w","type":"image/webp","sizes":"(min-width: 1600px) 1600px, 100vw"}]},"width":1600,"height":650}}}],"pageInfo":{"pageCount":3,"hasPreviousPage":true,"hasNextPage":false,"currentPage":3},"totalCount":17}},"pageContext":{"slug":"/blog/tag/technology/","limit":6,"skip":12,"collectionType":"tags","paginatePostsPage":false,"basePath":"/blog/","services":{"algolia":false,"mailchimp":false,"disqus":false},"siteUrl":null,"mobileMenu":{"title":"Topics","items":[{"name":"Resources","slug":"/blog/category/resources/"},{"name":"Features","slug":"/blog/category/features/"},{"name":"Press Releases","slug":"/blog/category/press-releases/"}]},"darkMode":false}},"staticQueryHashes":["1434057858","1992822086","3371225411"]}